\relax 
\providecommand\hyper@newdestlabel[2]{}
\providecommand\HyperFirstAtBeginDocument{\AtBeginDocument}
\HyperFirstAtBeginDocument{\ifx\hyper@anchor\@undefined
\global\let\oldcontentsline\contentsline
\gdef\contentsline#1#2#3#4{\oldcontentsline{#1}{#2}{#3}}
\global\let\oldnewlabel\newlabel
\gdef\newlabel#1#2{\newlabelxx{#1}#2}
\gdef\newlabelxx#1#2#3#4#5#6{\oldnewlabel{#1}{{#2}{#3}}}
\AtEndDocument{\ifx\hyper@anchor\@undefined
\let\contentsline\oldcontentsline
\let\newlabel\oldnewlabel
\fi}
\fi}
\global\let\hyper@last\relax 
\gdef\HyperFirstAtBeginDocument#1{#1}
\providecommand\HyField@AuxAddToFields[1]{}
\providecommand\HyField@AuxAddToCoFields[2]{}
\@writefile{toc}{\contentsline {section}{\numberline {1}Preparations}{1}{section.1}\protected@file@percent }
\@writefile{toc}{\contentsline {section}{\numberline {2}\texttt  {run\_specification}}{1}{section.2}\protected@file@percent }
\citation{ofstad2014vibrational}
\citation{martin1995anharmonic}
\@writefile{toc}{\contentsline {section}{\numberline {3}\texttt  {spectroscopy\_type}}{4}{section.3}\protected@file@percent }
\@writefile{toc}{\contentsline {section}{\numberline {4}\texttt  {spectroscopy\_specification}}{4}{section.4}\protected@file@percent }
\@writefile{toc}{\contentsline {section}{\numberline {5}\texttt  {cauchy\_type}}{5}{section.5}\protected@file@percent }
\@writefile{toc}{\contentsline {section}{\numberline {6}\texttt  {names}}{6}{section.6}\protected@file@percent }
\@writefile{toc}{\contentsline {section}{\numberline {7}Other inputs}{6}{section.7}\protected@file@percent }
\@writefile{toc}{\contentsline {section}{\numberline {8}Citations/Aknowledgements}{6}{section.8}\protected@file@percent }
\citation{gohlke}
\citation{ofstad2014vibrational}
\citation{cornaton2016analytic}
\bibstyle{unsrt}
\bibdata{refs.bib}
\bibcite{ofstad2014vibrational}{{1}{}{{}}{{}}}
\@writefile{lot}{\contentsline {table}{\numberline {1}{\ignorespaces Origin/inspiration of routines\relax }}{7}{table.caption.7}\protected@file@percent }
\providecommand*\caption@xref[2]{\@setref\relax\@undefined{#1}}
\newlabel{Daltonleg}{{1}{7}{Origin/inspiration of routines\relax }{table.caption.7}{}}
\@writefile{toc}{\contentsline {section}{\numberline {9}Brief history of the code}{7}{section.9}\protected@file@percent }
\bibcite{martin1995anharmonic}{{2}{}{{}}{{}}}
\bibcite{gohlke}{{3}{}{{}}{{}}}
\bibcite{cornaton2016analytic}{{4}{}{{}}{{}}}
\providecommand\NAT@force@numbers{}\NAT@force@numbers
